Home · CUBScout.jl
…
julia> all_cub(example_data_path, dataframe = true) # Get output in dataframe format
3801×8 DataFrame
  Row │ self_B    ENC      self_ENCP  self_MCB   self_MILC  SCUO       Identifier                         File           ⋯
      │ Float64   Float64  Float64    Float64    Float64    Float64    String                             String         ⋯
──────┼───────────────────────────────────────────────────────────────────────────────────────────────────────────────────
    1 │ 0.209127  56.7873    61.0     0.0872112   0.494826  0.143121   lcl|NC_000964.3_cds_NP_387882.1_1  /Users/augustu ⋯
    2 │ 0.328976  52.7259    59.3698  0.178337    0.583944  0.191237   lcl|NC_000964.3_cds_NP_387883.1_2  /Users/augustu
    3 │ 0.223653  59.2879    60.7495  0.189682    0.499472  0.0963239  lcl|NC_000964.3_cds_NP_387885.1_4  /Users/augustu
    4 │ 0.539114  52.2967    61.0     0.24012     0.635493  0.345211   lcl|NC_000964.3_cds_NP_387886.2_5  /Users/augustu
  ⋮   │    ⋮         ⋮         ⋮          ⋮          ⋮          ⋮                      ⋮                                 ⋱
 3799 │ 0.403484  55.2294    59.9479  0.201194    0.616443  0.18407    lcl|NC_000964.3_cds_NP_391983.1_…  /Users/augustu ⋯
 3800 │ 0.359463  52.584     59.4305  0.222778    0.601804  0.156161   lcl|NC_000964.3_cds_NP_391984.1_…  /Users/augustu
 3801 │ 0.372486  60.1928    61.0     0.141834    0.487755  0.235914   lcl|NC_000964.3_cds_NP_391985.1_…  /Users/augustu
                                                                                            1 column and 3794 rows omitted

julia> ribosomal_genes = find_seqs(example_data_path, r"ribosomal"); # Get a vector which is true for ribosomal genes

julia> all_cub(example_data_path, ref_seqs = (ribosomal = ribosomal_genes,), dataframe = true) # Calculate all measures using ribosomal genes as a reference subset
3801×8 DataFrame
  Row │ ribosomal_B  ENC      ribosomal_ENCP  ribosomal_MCB  ribosomal_MILC  SCUO       Identifier                       ⋯
      │ Float64      Float64  Float64         Float64        Float64         Float64    String                           ⋯
──────┼───────────────────────────────────────────────────────────────────────────────────────────────────────────────────
    1 │    0.274331  56.7873         61.0         0.142922         0.532406  0.143121   lcl|NC_000964.3_cds_NP_387882.1_ ⋯
    2 │    0.32069   52.7259         58.8882      0.179081         0.579498  0.191237   lcl|NC_000964.3_cds_NP_387883.1_
    3 │    0.255325  59.2879         56.4104      0.306192         0.541516  0.0963239  lcl|NC_000964.3_cds_NP_387885.1_
    4 │    0.546493  52.2967         61.0         0.296251         0.668068  0.345211   lcl|NC_000964.3_cds_NP_387886.2_
  ⋮   │      ⋮          ⋮           ⋮               ⋮              ⋮             ⋮                      ⋮                ⋱
 3799 │    0.406673  55.2294         56.5325      0.239881         0.636678  0.18407    lcl|NC_000964.3_cds_NP_391983.1_ ⋯
 3800 │    0.375857  52.584          55.6687      0.260092         0.623519  0.156161   lcl|NC_000964.3_cds_NP_391984.1_
 3801 │    0.437981  60.1928         61.0         0.197456         0.551733  0.235914   lcl|NC_000964.3_cds_NP_391985.1_
                                                                                           2 columns and 3794 rows omitted
…
julia> result_300 = b(example_data_path, threshold = 300); # Increase threshold length

julia> length(result.self)
3801

julia> length(result_300.self)
1650

julia> b(example_data_path, altstart_codon_dict) # Use alternative start codons
(self = [0.20897234061622738, 0.33515000264964157, 0.23659038285006437, 0.5444798345895256, 0.2510726777670733, 0.2931440715811394, 0.32097661134289895, 0.35705614480228676, 0.25452296343822073, 0.513313870450466  …  0.34414371567411556, 0.38229515825882665, 0.4592524704597901, 0.3399477982926337, 0.29297757306048133, 0.2680028918895221, 0.2168486105068708, 0.414543030746344, 0.3829702745346273, 0.39870546723886807],)

julia> b(example_data_path, dataframe = true) # Get output in dataframe format
3801×3 DataFrame
  Row │ self      Identifier                         File                              
      │ Float64   String                             String                            
──────┼────────────────────────────────────────────────────────────────────────────────
    1 │ 0.209127  lcl|NC_000964.3_cds_NP_387882.1_1  /Users/augustuspendleton/.julia/…
    2 │ 0.328976  lcl|NC_000964.3_cds_NP_387883.1_2  /Users/augustuspendleton/.julia/…
    3 │ 0.223653  lcl|NC_000964.3_cds_NP_387885.1_4  /Users/augustuspendleton/.julia/…
    4 │ 0.539114  lcl|NC_000964.3_cds_NP_387886.2_5  /Users/augustuspendleton/.julia/…
  ⋮   │    ⋮                      ⋮                                  ⋮
 3799 │ 0.403484  lcl|NC_000964.3_cds_NP_391983.1_…  /Users/augustuspendleton/.julia/…
 3800 │ 0.359463  lcl|NC_000964.3_cds_NP_391984.1_…  /Users/augustuspendleton/.julia/…
 3801 │ 0.372486  lcl|NC_000964.3_cds_NP_391985.1_…  /Users/augustuspendleton/.julia/…
                                                                      3794 rows omitted

julia> all_genes = find_seqs(example_data_path, r""); # Get a vector which is true for all genes

julia> ribosomal_genes = find_seqs(example_data_path, r"ribosomal"); # Get a vector which is true for ribosomal genes

julia> b(example_data_path, ref_seqs = (ribosomal = ribosomal_genes,), dataframe = true) # Calculate B using ribosomal genes as a reference subset
3801×3 DataFrame
  Row │ ribosomal  Identifier                         File                              
      │ Float64    String                             String                            
──────┼─────────────────────────────────────────────────────────────────────────────────
    1 │  0.274331  lcl|NC_000964.3_cds_NP_387882.1_1  /Users/augustuspendleton/.julia/…
    2 │  0.32069   lcl|NC_000964.3_cds_NP_387883.1_2  /Users/augustuspendleton/.julia/…
    3 │  0.255325  lcl|NC_000964.3_cds_NP_387885.1_4  /Users/augustuspendleton/.julia/…
    4 │  0.546493  lcl|NC_000964.3_cds_NP_387886.2_5  /Users/augustuspendleton/.julia/…
  ⋮   │     ⋮                      ⋮                                  ⋮
 3799 │  0.406673  lcl|NC_000964.3_cds_NP_391983.1_…  /Users/augustuspendleton/.julia/…
 3800 │  0.375857  lcl|NC_000964.3_cds_NP_391984.1_…  /Users/augustuspendleton/.julia/…
 3801 │  0.437981  lcl|NC_000964.3_cds_NP_391985.1_…  /Users/augustuspendleton/.julia/…
                                                                       3794 rows omitted

julia> b(example_data_path, ref_seqs = (self = all_genes, ribosomal = ribosomal_genes,), dataframe = true) # Calculate B using all genes and ribosomal genes as a reference subset
3801×4 DataFrame
  Row │ self      ribosomal  Identifier                         File                              
      │ Float64   Float64    String                             String                            
──────┼───────────────────────────────────────────────────────────────────────────────────────────
    1 │ 0.209127   0.274331  lcl|NC_000964.3_cds_NP_387882.1_1  /Users/augustuspendleton/.julia/…
    2 │ 0.328976   0.32069   lcl|NC_000964.3_cds_NP_387883.1_2  /Users/augustuspendleton/.julia/…
    3 │ 0.223653   0.255325  lcl|NC_000964.3_cds_NP_387885.1_4  /Users/augustuspendleton/.julia/…
    4 │ 0.539114   0.546493  lcl|NC_000964.3_cds_NP_387886.2_5  /Users/augustuspendleton/.julia/…
  ⋮   │    ⋮          ⋮                      ⋮                                  ⋮
 3799 │ 0.403484   0.406673  lcl|NC_000964.3_cds_NP_391983.1_…  /Users/augustuspendleton/.julia/…
 3800 │ 0.359463   0.375857  lcl|NC_000964.3_cds_NP_391984.1_…  /Users/augustuspendleton/.julia/…
 3801 │ 0.372486   0.437981  lcl|NC_000964.3_cds_NP_391985.1_…  /Users/augustuspendleton/.julia/…
                                                                                 3794 rows omitted
…
julia> enc(example_data_path, dataframe = true) # Get output in dataframe format
3801×3 DataFrame
  Row │ ENC      Identifier                         File                              
      │ Float64  String                             String                            
──────┼───────────────────────────────────────────────────────────────────────────────
    1 │ 56.7873  lcl|NC_000964.3_cds_NP_387882.1_1  /Users/augustuspendleton/.julia/…
    2 │ 52.7259  lcl|NC_000964.3_cds_NP_387883.1_2  /Users/augustuspendleton/.julia/…
    3 │ 59.2879  lcl|NC_000964.3_cds_NP_387885.1_4  /Users/augustuspendleton/.julia/…
    4 │ 52.2967  lcl|NC_000964.3_cds_NP_387886.2_5  /Users/augustuspendleton/.julia/…
  ⋮   │    ⋮                     ⋮                                  ⋮
 3799 │ 55.2294  lcl|NC_000964.3_cds_NP_391983.1_…  /Users/augustuspendleton/.julia/…
 3800 │ 52.584   lcl|NC_000964.3_cds_NP_391984.1_…  /Users/augustuspendleton/.julia/…
 3801 │ 60.1928  lcl|NC_000964.3_cds_NP_391985.1_…  /Users/augustuspendleton/.julia/…
                                                                     3794 rows omitted
…
julia> result_300 = enc_p(example_data_path, threshold = 300); # Increase threshold length

julia> length(result.self)
3801

julia> length(result_300.self)
1650

julia> enc_p(example_data_path, altstart_codon_dict) # Use alternative start codons
(self = [61.0, 59.25393167941246, 60.451328058538294, 61.0, 61.0, 56.577935943942954, 55.48412223261298, 57.35814028261265, 61.0, 48.78039661159036  …  58.93889392717741, 61.0, 59.1935848198233, 61.0, 61.0, 59.587859071790746, 61.0, 58.81213890142517, 59.40548501932952, 61.0],)

julia> enc_p(example_data_path, dataframe = true) # Get output in dataframe format
3801×3 DataFrame
  Row │ self     Identifier                         File                              
      │ Float64  String                             String                            
──────┼───────────────────────────────────────────────────────────────────────────────
    1 │ 61.0     lcl|NC_000964.3_cds_NP_387882.1_1  /Users/augustuspendleton/.julia/…
    2 │ 59.3698  lcl|NC_000964.3_cds_NP_387883.1_2  /Users/augustuspendleton/.julia/…
    3 │ 60.7495  lcl|NC_000964.3_cds_NP_387885.1_4  /Users/augustuspendleton/.julia/…
    4 │ 61.0     lcl|NC_000964.3_cds_NP_387886.2_5  /Users/augustuspendleton/.julia/…
  ⋮   │    ⋮                     ⋮                                  ⋮
 3799 │ 59.9479  lcl|NC_000964.3_cds_NP_391983.1_…  /Users/augustuspendleton/.julia/…
 3800 │ 59.4305  lcl|NC_000964.3_cds_NP_391984.1_…  /Users/augustuspendleton/.julia/…
 3801 │ 61.0     lcl|NC_000964.3_cds_NP_391985.1_…  /Users/augustuspendleton/.julia/…
                                                                     3794 rows omitted

julia> all_genes = find_seqs(example_data_path, r""); # Get a vector which is true for all genes

julia> ribosomal_genes = find_seqs(example_data_path, r"ribosomal"); # Get a vector which is true for ribosomal genes

julia> enc_p(example_data_path, ref_seqs = (ribosomal = ribosomal_genes,), dataframe = true) # Calculate ENC' using ribosomal genes as a reference subset
3801×3 DataFrame
  Row │ ribosomal  Identifier                         File                              
      │ Float64    String                             String                            
──────┼─────────────────────────────────────────────────────────────────────────────────
    1 │   61.0     lcl|NC_000964.3_cds_NP_387882.1_1  /Users/augustuspendleton/.julia/…
    2 │   58.8882  lcl|NC_000964.3_cds_NP_387883.1_2  /Users/augustuspendleton/.julia/…
    3 │   56.4104  lcl|NC_000964.3_cds_NP_387885.1_4  /Users/augustuspendleton/.julia/…
    4 │   61.0     lcl|NC_000964.3_cds_NP_387886.2_5  /Users/augustuspendleton/.julia/…
  ⋮   │     ⋮                      ⋮                                  ⋮
 3799 │   56.5325  lcl|NC_000964.3_cds_NP_391983.1_…  /Users/augustuspendleton/.julia/…
 3800 │   55.6687  lcl|NC_000964.3_cds_NP_391984.1_…  /Users/augustuspendleton/.julia/…
 3801 │   61.0     lcl|NC_000964.3_cds_NP_391985.1_…  /Users/augustuspendleton/.julia/…
                                                                       3794 rows omitted

julia> enc_p(example_data_path, ref_seqs = (self = all_genes, ribosomal = ribosomal_genes,), dataframe = true) # Calculate ENC' using all genes and ribosomal genes as a reference subset
3801×4 DataFrame
  Row │ self     ribosomal  Identifier                         File                              
      │ Float64  Float64    String                             String                            
──────┼──────────────────────────────────────────────────────────────────────────────────────────
    1 │ 61.0       61.0     lcl|NC_000964.3_cds_NP_387882.1_1  /Users/augustuspendleton/.julia/…
    2 │ 59.3698    58.8882  lcl|NC_000964.3_cds_NP_387883.1_2  /Users/augustuspendleton/.julia/…
    3 │ 60.7495    56.4104  lcl|NC_000964.3_cds_NP_387885.1_4  /Users/augustuspendleton/.julia/…
    4 │ 61.0       61.0     lcl|NC_000964.3_cds_NP_387886.2_5  /Users/augustuspendleton/.julia/…
  ⋮   │    ⋮         ⋮                      ⋮                                  ⋮
 3799 │ 59.9479    56.5325  lcl|NC_000964.3_cds_NP_391983.1_…  /Users/augustuspendleton/.julia/…
 3800 │ 59.4305    55.6687  lcl|NC_000964.3_cds_NP_391984.1_…  /Users/augustuspendleton/.julia/…
 3801 │ 61.0       61.0     lcl|NC_000964.3_cds_NP_391985.1_…  /Users/augustuspendleton/.julia/…
                                                                                3794 rows omitted
…
julia> result_300 = mcb(example_data_path, threshold = 300); # Increase threshold length

julia> length(result.self)
3801

julia> length(result_300.self)
1650

julia> mcb(example_data_path, altstart_codon_dict) # Use alternative start codons
(self = [0.08395614019755322, 0.17886564496310903, 0.1843882189861458, 0.2327059977332034, 0.14375956626276776, 0.26153451676836, 0.2277560915069008, 0.2084721025526067, 0.12748812450452368, 0.35284946520551547  …  0.19412496858111208, 0.15378185701040462, 0.22664543233169301, 0.1572460068164919, 0.12228357240597998, 0.16482459147152181, 0.09433344489896123, 0.2180785328818952, 0.22046000262742788, 0.14934890119286454],)

julia> mcb(example_data_path, dataframe = true) # Get output in dataframe format
3801×3 DataFrame
  Row │ self       Identifier                         File                              
      │ Float64    String                             String                            
──────┼─────────────────────────────────────────────────────────────────────────────────
    1 │ 0.0872112  lcl|NC_000964.3_cds_NP_387882.1_1  /Users/augustuspendleton/.julia/…
    2 │ 0.178337   lcl|NC_000964.3_cds_NP_387883.1_2  /Users/augustuspendleton/.julia/…
    3 │ 0.189682   lcl|NC_000964.3_cds_NP_387885.1_4  /Users/augustuspendleton/.julia/…
    4 │ 0.24012    lcl|NC_000964.3_cds_NP_387886.2_5  /Users/augustuspendleton/.julia/…
  ⋮   │     ⋮                      ⋮                                  ⋮
 3799 │ 0.201194   lcl|NC_000964.3_cds_NP_391983.1_…  /Users/augustuspendleton/.julia/…
 3800 │ 0.222778   lcl|NC_000964.3_cds_NP_391984.1_…  /Users/augustuspendleton/.julia/…
 3801 │ 0.141834   lcl|NC_000964.3_cds_NP_391985.1_…  /Users/augustuspendleton/.julia/…
                                                                       3794 rows omitted

julia> all_genes = find_seqs(example_data_path, r""); # Get a vector which is true for all genes

julia> ribosomal_genes = find_seqs(example_data_path, r"ribosomal"); # Get a vector which is true for ribosomal genes

julia> mcb(example_data_path, ref_seqs = (ribosomal = ribosomal_genes,), dataframe = true) # Calculate MCB using ribosomal genes as a reference subset
3801×3 DataFrame
  Row │ ribosomal  Identifier                         File                              
      │ Float64    String                             String                            
──────┼─────────────────────────────────────────────────────────────────────────────────
    1 │ 0.142922   lcl|NC_000964.3_cds_NP_387882.1_1  /Users/augustuspendleton/.julia/…
    2 │ 0.179081   lcl|NC_000964.3_cds_NP_387883.1_2  /Users/augustuspendleton/.julia/…
    3 │ 0.306192   lcl|NC_000964.3_cds_NP_387885.1_4  /Users/augustuspendleton/.julia/…
    4 │ 0.296251   lcl|NC_000964.3_cds_NP_387886.2_5  /Users/augustuspendleton/.julia/…
  ⋮   │     ⋮                      ⋮                                  ⋮
 3799 │ 0.239881   lcl|NC_000964.3_cds_NP_391983.1_…  /Users/augustuspendleton/.julia/…
 3800 │ 0.260092   lcl|NC_000964.3_cds_NP_391984.1_…  /Users/augustuspendleton/.julia/…
 3801 │ 0.197456   lcl|NC_000964.3_cds_NP_391985.1_…  /Users/augustuspendleton/.julia/…
                                                                       3794 rows omitted

julia> mcb(example_data_path, ref_seqs = (self = all_genes, ribosomal = ribosomal_genes,), dataframe = true) # Calculate MCB using all genes and ribosomal genes as a reference subset
3801×4 DataFrame
  Row │ self       ribosomal  Identifier                         File                              
      │ Float64    Float64    String                             String                            
──────┼────────────────────────────────────────────────────────────────────────────────────────────
    1 │ 0.0872112  0.142922   lcl|NC_000964.3_cds_NP_387882.1_1  /Users/augustuspendleton/.julia/…
    2 │ 0.178337   0.179081   lcl|NC_000964.3_cds_NP_387883.1_2  /Users/augustuspendleton/.julia/…
    3 │ 0.189682   0.306192   lcl|NC_000964.3_cds_NP_387885.1_4  /Users/augustuspendleton/.julia/…
    4 │ 0.24012    0.296251   lcl|NC_000964.3_cds_NP_387886.2_5  /Users/augustuspendleton/.julia/…
  ⋮   │     ⋮          ⋮                      ⋮                                  ⋮
 3799 │ 0.201194   0.239881   lcl|NC_000964.3_cds_NP_391983.1_…  /Users/augustuspendleton/.julia/…
 3800 │ 0.222778   0.260092   lcl|NC_000964.3_cds_NP_391984.1_…  /Users/augustuspendleton/.julia/…
 3801 │ 0.141834   0.197456   lcl|NC_000964.3_cds_NP_391985.1_…  /Users/augustuspendleton/.julia/…
                                                                                  3794 rows omitted

julia> mcb(example_data_path, ref_seqs = (self = all_genes, ribosomal = ribosomal_genes,), dataframe = true) # Calculate MCB using all genes and ribosomal genes as a reference subset
3801×4 DataFrame
  Row │ self       ribosomal  Identifier                         File                              
      │ Float64    Float64    String                             String                            
──────┼────────────────────────────────────────────────────────────────────────────────────────────
    1 │ 0.0872112  0.142922   lcl|NC_000964.3_cds_NP_387882.1_1  /Users/augustuspendleton/.julia/…
    2 │ 0.178337   0.179081   lcl|NC_000964.3_cds_NP_387883.1_2  /Users/augustuspendleton/.julia/…
    3 │ 0.189682   0.306192   lcl|NC_000964.3_cds_NP_387885.1_4  /Users/augustuspendleton/.julia/…
    4 │ 0.24012    0.296251   lcl|NC_000964.3_cds_NP_387886.2_5  /Users/augustuspendleton/.julia/…
  ⋮   │     ⋮          ⋮                      ⋮                                  ⋮
 3799 │ 0.201194   0.239881   lcl|NC_000964.3_cds_NP_391983.1_…  /Users/augustuspendleton/.julia/…
 3800 │ 0.222778   0.260092   lcl|NC_000964.3_cds_NP_391984.1_…  /Users/augustuspendleton/.julia/…
 3801 │ 0.141834   0.197456   lcl|NC_000964.3_cds_NP_391985.1_…  /Users/augustuspendleton/.julia/…
                                                                                  3794 rows omitted
…
